%YAML 1.1
%TAG !u! tag:unity3d.com,2011:
--- !u!21 &2100000
Material:
  serializedVersion: 6
  m_ObjectHideFlags: 0
  m_CorrespondingSourceObject: {fileID: 0}
  m_PrefabInstance: {fileID: 0}
  m_PrefabAsset: {fileID: 0}
  m_Name: Torus Imprecise
  m_Shader: {fileID: 4800000, guid: 6e59434d4b9cc7a4cb3fe75500d69cdc, type: 3}
  m_ShaderKeywords: 
  m_LightmapFlags: 4
  m_EnableInstancingVariants: 0
  m_DoubleSidedGI: 0
  m_CustomRenderQueue: -1
  stringTagMap: {}
  disabledShaderPasses: []
  m_SavedProperties:
    serializedVersion: 3
    m_TexEnvs:
    - _MainTex:
        m_Texture: {fileID: 0}
        m_Scale: {x: 1, y: 1}
        m_Offset: {x: 0, y: 0}
    m_Floats:
    - _BlackBox: 0
    - _Gloss: 16
    - _GridSpacing: 10
    - _GridThickness: 0.01
    - _MaxDistance: 100
    - _MaxSteps: 5.57
    - _Max_Distance: 100
    - _SpecularIntensity: 0.6
    - _SurfaceDistance: 0.001
    - _Surface_Distance: 0.001
    m_Colors:
    - _AmbientColor: {r: 0.1981132, g: 0.18222676, b: 0.18222676, a: 1}
    - _BaseColor: {r: 0.8962264, g: 0.80322176, b: 0.75671947, a: 1}
    - _BaseColour: {r: 0, g: 0, b: 0, a: 0}
    - _GridColour: {r: 0.5, g: 0.5, b: 0.5, a: 0.5}
