%YAML 1.1
%TAG !u! tag:unity3d.com,2011:
--- !u!21 &2100000
Material:
  serializedVersion: 6
  m_ObjectHideFlags: 0
  m_CorrespondingSourceObject: {fileID: 0}
  m_PrefabInstance: {fileID: 0}
  m_PrefabAsset: {fileID: 0}
  m_Name: HeightMapSandRocksWorld
  m_Shader: {fileID: 4800000, guid: 30cc205b9c1f18f4b883c0954eea18ea, type: 3}
  m_ShaderKeywords: _WORLDSPACE_ON
  m_LightmapFlags: 4
  m_EnableInstancingVariants: 0
  m_DoubleSidedGI: 0
  m_CustomRenderQueue: -1
  stringTagMap: {}
  disabledShaderPasses: []
  m_SavedProperties:
    serializedVersion: 3
    m_TexEnvs:
    - _HeightMap:
        m_Texture: {fileID: 2800000, guid: 27d5c0f3614e09f4c84a4777eff31d91, type: 3}
        m_Scale: {x: 0.2, y: 0.2}
        m_Offset: {x: 0, y: 0}
    - _MainTex:
        m_Texture: {fileID: 2800000, guid: 329ef0441135b3e48b341d7623de6a2e, type: 3}
        m_Scale: {x: 0.2, y: 0.2}
        m_Offset: {x: 0, y: 0}
    m_Floats:
    - _DrawSteps: 0
    - _Gloss: 13
    - _Height: 0.5
    - _MaxDistance: 25
    - _MaxSteps: 600
    - _NormalSmoothing: 0.055
    - _SpecularIntensity: 0.6
    - _SurfaceDistance: 0.001
    - _WorldSpace: 1
    m_Colors:
    - _AmbientColor: {r: 0.15999997, g: 0.15999997, b: 0.15999997, a: 1}
    - _BaseColor: {r: 0.8, g: 0.8, b: 0.8, a: 1}
    - _DrawStepsColor: {r: 1, g: 0, b: 0, a: 1}
